{
    "correlationId": "2",
    "createdDate": "2018-05-31T16:38:29.1812757+10:00",
    "status": "Handled",
    "finalisedDate": "2018-05-31T16:38:56.557+10:00",
    "eventType": "AuthenticationRequired",
    "additionalData": {
        "validateReferenceCode": false,
        "referenceCode": "1111"
    },
    "links":[{
             "href":"/api/v1/identities/2/events/2",
             "rel":"self",
             "method":"get",
             "authentication":"extension"
             }
             ]
}
