[
  {
    "url" : "/api/v1/system/metadata/{platformType}/{runtimeType}/{runtimeVersion}/{formFactorType}/{version}",
    "method" : "get",
    "scenarios" : "system.scenarios.get.json"
  },
  {
    "url" : "/api/v1/termsAndConditions",
    "method" : "get",
    "scenarios" : "tnc.scenarios.get.json"
  },
  {
    "url" : "/api/v1/poi",
    "method" : "post",
    "scenarios" : "poi.scenarios.post.json"
  },
  {
    "url" : "/api/v1/poi/{poiId}/documents/emails",
    "method" : "post",
    "scenarios" : "email.scenarios.post.json"
  },
  {
    "url" : "/api/v1/poi/{poiId}/tasks/{taskId}/emailVerificationResponse",
    "method" : "post",
    "scenarios" : "emailver.scenarios.post.json"
  },
  {
    "url" : "/api/v1/credentials/x509s",
    "method" : "post",
    "scenarios" : "cred.scenarios.post.json"
  },
  {
    "url" : "/api/v1/credentials/tasks/{taskId}",
    "method" : "get",
    "scenarios" : "task.scenarios.get.json"
  },
  {
    "url" : "/api/v1/poi/{poiId}/documents/personalDetailsDocuments",
    "method" : "post",
    "scenarios" : "personal.scenarios.post.json"
  },
  {
    "url" : "/core/connect/token",
    "method" : "post",
    "scenarios" : "token.scenarios.post.json"
  },
  {
    "url" : "/api/v1/identities/{id}/eventqueue?action=pop",
    "method" : "get",
    "scenarios" : "get.events.scenarios.get.json"
  },
  {
    "url" : "/api/v1/poi/{poiId}/documents/passportDocuments",
    "method" : "post",
    "scenarios" : "passport.scenarios.post.json"
  }
]