[
  {
    "statusCode" : 202,
    "criteria" : [

    ],
    "name" : "SUCCESS",
    "headers" : {
      "Location" : "/api/v1/credentials/tasks/1"
    },
    "response" : "cred.post.success.json"
  }
]