[
  {
    "statusCode" : 201,
    "criteria" : [
      {
        "field" : "taskId",
        "value" : "4"
      }
    ],
    "name" : "PASSPORT DETAILS",
    "headers" : {

    },
    "response" : "req.get.passport.details.json"
  },
  {
    "statusCode" : 201,
    "criteria" : [
      {
        "field" : "taskId",
        "value" : "7"
      }
    ],
    "name" : "LICENCE DETAILS DS1",
    "headers" : {

    },
    "response" : "req.get.licence.details.ds1.json"
  }
]