{
    "id": 10,
    "status": "verified",
    "eta": 1,
    "remainingRetryCount": 5,
    "processId": "52942edb-3cd6-4ab4-8ee7-b23cd64c4430",
    "links": [
      {
        "href": "/api/v1/poi/52942edb-3cd6-4ab4-8ee7-b23cd64c4430/documents/passportDocuments/1",
        "rel": "self",
        "method": "get",
        "authentication": "credential"
      }
    ]
}
