{
    "acceptedTermsAndConditionsVersion": "1.0.0.0",
    "links": [
              {
              "href": "/api/v1/poi/52942edb-3cd6-4ab4-8ee7-b23cd64c4430",
              "rel": "self",
              "method": "get",
              "authentication": "extension"
              },
              {
              "href": "/api/v1/poi/52942edb-3cd6-4ab4-8ee7-b23cd64c4430/documents/passportDocuments",
              "rel": "next",
              "method": "post",
              "authentication": "extension"
              },
              {
              "href": "/api/v1/poi/52942edb-3cd6-4ab4-8ee7-b23cd64c4430/documents/driverLicenceDocuments",
              "rel": "next",
              "method": "post",
              "authentication": "extension"
              }
              ]
}
