{
    "id": 1,
    "status": "Submitted",
    "eta":1,
  "links": [
    {
      "href": "/api/v1/credentials/tasks/1",
      "rel": "Self",
      "method": "GET",
      "authentication": "assurance"
    }
  ]
}
