{
    "verificationCodeResult": "Verified",
    "poiAssuranceToken": "eyJ0eXAiOiJKV1QiLCJhbGciOiJSUzI1NiIsIng1dCI6Il80RnNnZmV2NndQd1dwUVBNOWluOGxiNHRqYyJ9.eyJzdWIiOiJhcGkvdjEvcG9pLzNlM2MwMzRlLThmNGEtNDAxOS05ZDU3LTY0ZWNjNWFhMGQ4MiIsImlzcyI6Imh0dHBzOi8vYXRvLmdvdi5hdS9hdXNpZC9wb2kiLCJhdWQiOiJodHRwczovL2F0by5nb3YuYXUvYXVzaWQvY3JlZGVudGlhbCIsImV4cCI6MTUyMzkzMjAyM30.G6GD0zF-xYuS4zdGnkzBIv-eefMx0nC4poZjPQBsIEUXATr0xTG2wCVVpSStuKH42BRTskRBZrV67Vp4bvmBeBT9oX2i_76CB6WAx4uDYNbuIb5qIKcHo9xhVlVeHwSKGglXiKU-wiG-L7otlP8d4w5IFOUDQvg_58izmDOuSckiDS5s_rrYnKM__nWmQjfhL1LpSCHIOnTqJhhbDBweZQUoCdTY7u4SKX2SabQo9EPoEaXpsqrSUsBmQBe7aTkDSBgw206MU61CIK2EcYMpTs518jfXRX4SjK4xALIvNGCI5f24s6BxfRsfVT-MNM_zGWCGQJvaEkO_i-9rfRcPHQ",
    "processId": "52942edb-3cd6-4ab4-8ee7-b23cd64c4430",
    "links": [
              {
              "href": "/api/v1/poi/52942edb-3cd6-4ab4-8ee7-b23cd64c4430/bind",
              "rel": "next",
              "method": "post",
              "authentication": "user"
              },
              {
              "href": "/api/v1/poi/52942edb-3cd6-4ab4-8ee7-b23cd64c4430/documents/personalDetailsDocuments",
              "rel": "next",
              "method": "post",
              "authentication": "credential"
              }
              ]
}
