[
  {
    "statusCode" : 202,
    "criteria" : [

    ],
    "name" : "SUCCESS DS1",
    "headers" : {
      "Location" : "/api/v1/poi/52942edb-3cd6-4ab4-8ee7-b23cd64c4430/tasks/7"
    },
    "response" : "licence.post.success.ds1.json"
  }
]