{
    "documentId": 1,
    "firstName": "Shane",
    "lastName": "Foreman",
    "dateOfBirth": {
        "year": 1981,
        "month": 1,
        "day": 18
    },
    "processId": "52942edb-3cd6-4ab4-8ee7-b23cd64c4430",
    "links": [
              {
              "href": "/api/v1/poi/52942edb-3cd6-4ab4-8ee7-b23cd64c4430/documents/personalDetailsDocuments/1",
              "rel": "self",
              "method": "get",
              "authentication": "credential"
              },
              {
              "href": "/api/v1/poi/52942edb-3cd6-4ab4-8ee7-b23cd64c4430/documents/passportDocuments",
              "rel": "next",
              "method": "post",
              "authentication": "extension"
              },
              {
              "href": "/api/v1/poi/52942edb-3cd6-4ab4-8ee7-b23cd64c4430/documents/driverLicenceDocuments",
              "rel": "next",
              "method": "post",
              "authentication": "extension"
              }
              ]
}
