{
    "capabilities":[
                    "Facial_Verification_Passport",
                    "DVS_Driver_Licence",
                    "DVS_Medicare_Card",
                    "DVS_Passport",
                    "OCR_Passport",
                    "OCR_Driver_Licence",
                    "POI_Begin",
                    "POI_Resume",
                    "Authentication",
                    "Push_Notification",
                    "Menu_Settings",
                    "Menu_Account",
                    "Menu_About"
                    ],
    "alerts":[],
    "links":[
             {
             "href":"/api/v1/system/metadata/Apple/iOS/11.2/phone/1.0",
             "rel":"self",
             "method":"get",
             "authentication":"none"
             }
             ]
}
