{
    "id": 5,
    "status": "Submitted",
    "eta": 1,
    "remainingRetryCount": 5,
    "processId": "52942edb-3cd6-4ab4-8ee7-b23cd64c4430",
    "links": [
              {
              "href": "/api/v1/poi/52942edb-3cd6-4ab4-8ee7-b23cd64c4430/tasks/5",
              "rel": "self",
              "method": "get",
              "authentication": "some"
              },
              {
              "href": "/api/v1/poi/52942edb-3cd6-4ab4-8ee7-b23cd64c4430/tasks/5",
              "rel": "cancel",
              "method": "delete",
              "authentication": "some"
              },
              {
              "href": "/api/v1/poi/52942edb-3cd6-4ab4-8ee7-b23cd64c4430/tasks?taskId=5",
              "rel": "clone",
              "method": "post",
              "authentication": "some"
              },
              {
              "href": "/api/v1/poi/52942edb-3cd6-4ab4-8ee7-b23cd64c4430/bind",
              "rel": "next",
              "method": "post",
              "authentication": "some"
              }
              ]
}
