{
"messages": [
{
"code": "POI11000 (500)",
"type": "Error",
"title": "System unavailable",
"description": "<p>We are unable to process your request at this time. Try again in 10 minutes</p><p>If the issue persists, contact us on <br><b>13 28 61</b></p><p><b>Error code POI11000 (500)</b></p>",
"parameter": null
}
]
}
