{
    "documentId": 2,
    "firstName": "Shane",
    "lastName": "IPForeman",
    "middleName": null,
    "dateOfBirth": {
        "year": 1981,
        "month": 1,
        "day": 18
    },
    "stateofissue": "QLD",
    "consentProvided": true,
    "processId": "52942edb-3cd6-4ab4-8ee7-b23cd64c4430",
    "links": [
              {
              "href": "/api/v1/poi/52942edb-3cd6-4ab4-8ee7-b23cd64c4430/documents/driverLicenceDocuments/2",
              "rel": "self",
              "method": "get",
              "authentication": "extension"
              }
              ]
}
