[
  {
    "url" : "/api/v1/system/metadata/{platformType}/{runtimeType}/{runtimeVersion}/{formFactorType}/{version}",
    "method" : "get",
    "scenarios" : "system.scenarios.get.json"
  },
  {
    "url" : "/api/v1/termsAndConditions",
    "method" : "get",
    "scenarios" : "tnc.scenarios.get.json"
  },
  {
    "url" : "/api/v1/poi",
    "method" : "post",
    "scenarios" : "poi.scenarios.post.json"
  }
]