{
    "id": 4,
    "status": "Submitted",
    "eta": 1,
    "remainingRetryCount": 5,
    "processId": "52942edb-3cd6-4ab4-8ee7-b23cd64c4430",
    "links": [
              {
              "href": "/api/v1/poi/52942edb-3cd6-4ab4-8ee7-b23cd64c4430/tasks/4",
              "rel": "self",
              "authentication": "credential"
              },
              {
              "href": "/api/v1/poi/52942edb-3cd6-4ab4-8ee7-b23cd64c4430/tasks/4",
              "rel": "cancel",
              "authentication": "credential"
              },
              {
              "href": "/api/v1/poi/52942edb-3cd6-4ab4-8ee7-b23cd64c4430/tasks?taskId=4",
              "rel": "clone",
              "authentication": "credential"
              },
              {
              "href": "/api/v1/poi/52942edb-3cd6-4ab4-8ee7-b23cd64c4430/bind",
              "rel": "next",
              "authentication": "user"
              }
              ]
}

