{
    "acceptedTermsAndConditionsVersion": "1.0.0.0",
    "processId": "52942edb-3cd6-4ab4-8ee7-b23cd64c4430",
    "strength": "IP2",
    "status": "unabletoverify",
    "links": [
              {
              "href": "/api/v1/poi/52942edb-3cd6-4ab4-8ee7-b23cd64c4430",
              "rel": "self",
              "method": "get",
              "authentication": "extension"
              }
              ]
}
