[
 {
 "name": "Success",
 "criteria": [
              ],
 "statusCode": 200,
 "headers": { "Location": "/api/v1/poi/52942edb-3cd6-4ab4-8ee7-b23cd64c4430/tasks/1a079e6f-80e2-422b-8f12-b24b7c8ca72d" },
 "response": "req.delete.success.json"
 }
 ]

