 [
  {
  "name": "Success.Passport",
  "criteria": [
               {
               "field": "taskId",
               "value": "4"
               }
               ],
  "statusCode": 200,
  "headers": { "Location": "/api/v1/poi/52942edb-3cd6-4ab4-8ee7-b23cd64c4430/documents/passportDocuments/1" },
  "response":"passport.get.success.json"
  },
  {
  "name": "Success.Medicare",
  "criteria": [
               {
               "field": "taskId",
               "value": "5"
               }
               ],
  "statusCode": 200,
  "headers": { "Location": "/api/v1/poi/52942edb-3cd6-4ab4-8ee7-b23cd64c4430/documents/medicareDocuments/1" },
  "response": "medicare.get.success.json"
  
  },
  {
  "name": "Success.Licence",
  "criteria": [
               {
               "field": "taskId",
               "value": "7"
               }
               ],
  "statusCode": 200,
  "headers": { "Location": "/api/v1/poi/52942edb-3cd6-4ab4-8ee7-b23cd64c4430/documents/driverLicenceDocuments/1" },
  "response":"licence.get.success.json"
  },
  {
  "name": "Success.Licence",
  "criteria": [
               {
               "field": "taskId",
               "value": "8"
               }
               ],
  "statusCode": 200,
  "headers": { "Location": "/api/v1/poi/52942edb-3cd6-4ab4-8ee7-b23cd64c4430/documents/driverLicenceDocuments/1" },
  "response":"licence.get.success.ip.json"
  }
  ]
