{
    "id":2,
    "status":"Submitted",
    "eta":1,
    "remainingRetryCount":5,
    "processId":"52942edb-3cd6-4ab4-8ee7-b23cd64c4430",
    "links":[
             {
             "href":"/api/v1/poi/52942edb-3cd6-4ab4-8ee7-b23cd64c4430/tasks/2",
             "rel":"self",
             "method":"get",
             "authentication":"none"
             },
             {
             "href":"/api/v1/poi/52942edb-3cd6-4ab4-8ee7-b23cd64c4430/tasks/2",
             "rel":"cancel",
             "method":"delete",
             "authentication":"none"
             },
             {
             "href":"/api/v1/poi/52942edb-3cd6-4ab4-8ee7-b23cd64c4430/tasks?taskId=2",
             "rel":"clone",
             "method":"post",
             "authentication":"none"
             },
             {
             "href":"/api/v1/poi/52942edb-3cd6-4ab4-8ee7-b23cd64c4430/tasks/36/emailVerificationResponse",
             "rel":"next",
             "method":"post",
             "authentication":"none"
             }
             ]
}
