{
    "capabilities":[
                    "Facial_Verification_Passport",
                    "DVS_Driver_Licence",
                    "DVS_Medicare_Card",
                    "DVS_Passport",
                    "OCR_Passport",
                    "OCR_Medicare_Card",
                    "OCR_Driver_Licence",
                    "POI_Begin",
                    "POI_Resume",
                    "Authentication",
                    "Push_Notification",
                    "Menu_Settings",
                    "Menu_Account",
                    "Menu_About"
                    ],
    "alerts":[
              {
              "startDateTime":"2019-06-23T18:25:43.5112222",
              "endDateTime":"2019-08-23T18:25:43.5112222",
              "message":"POI not available",
              "type":"Information",
              "isSystemOutage":false
              },
              {
              "startDateTime":"2019-06-23T18:25:43.5112222",
              "endDateTime":"2019-08-23T18:25:43.5112222",
              "message":"The system will be down for scheduled maintenance",
              "type":"Warning",
              "isSystemOutage":false
              }
              ],
    "links":[
             {
             "href":"/api/v1/system/metadata/Apple/iOS/11.2/phone/1.0.0.5",
             "rel":"self",
             "method":"get",
             "authentication":"none"
             },
             {
             "href":"/api/v1/system/updates/iOS/",
             "rel":"update",
             "method":"get",
             "authentication":"none"
             }
             ]
}
