[
  {
    "statusCode" : 202,
    "criteria" : [

    ],
    "name" : "FIM000023",
    "headers" : {
      "Location" : "/api/v1/poi/52942edb-3cd6-4ab4-8ee7-b23cd64c4430/tasks/5"
    },
    "response" : "medicare.post.FIM000023.json"
  }
]