[
  {
    "statusCode" : 202,
    "criteria" : [

    ],
    "name" : "FIM000001",
    "headers" : {
        "Location" : "/api/v1/poi/52942edb-3cd6-4ab4-8ee7-b23cd64c4430/tasks/4"
    },
    "response" : "passport.post.FIM000001.json"
  }
]
