{
"documentId": 1,
"firstName": "Shane",
"lastName": "Foreman",
"dateOfBirth": {
"year": 1981,
"month": 1,
"day": 18
},
"gender": "Male",
"consentProvided": true,
"processId": "52942edb-3cd6-4ab4-8ee7-b23cd64c4430",
"links": [
{
"href": "/api/v1/poi/52942edb-3cd6-4ab4-8ee7-b23cd64c4430/documents/passportDocuments/1",
"rel": "self",
"method": "get",
"authentication": "extension"
},
{
"href": "/api/v1/poi/52942edb-3cd6-4ab4-8ee7-b23cd64c4430/documents/medicareDocuments",
"rel": "next",
"method": "post",
"authentication": "extension"
},
{
"href": "/api/v1/poi/52942edb-3cd6-4ab4-8ee7-b23cd64c4430/documents/driverLicenceDocuments",
"rel": "next",
"method": "post",
"authentication": "extension"
}
]
}
