[
  {
    "url" : "/core/connect/token",
    "method" : "post",
    "scenarios" : "token.scenarios.post.json"
  },
  {
    "url" : "/api/v1/system/metadata/{platformType}/{runtimeType}/{runtimeVersion}/{formFactorType}/{version}",
    "method" : "get",
    "scenarios" : "system.scenarios.get.json"
  },
  {
    "url" : "/api/v1/identities/{id}/eventqueue?action=pop",
    "method" : "get",
    "scenarios" : "get.events.scenarios.get.json"
  },
  {
    "url" : "/api/v1/poi/{poiId}",
    "method" : "get",
    "scenarios" : "poi.scenarios.get.json"
  }
]