 [
  {
    "name": "Success",
    "criteria": [
      {
        "field": "emailDocumentId",
        "value": "15affa8a-c1b2-4b05-aaf3-9ee4246f95a6"
      }
    ],
    "statusCode": 202,
    "headers": { "Location": "api/v1/poi/52942edb-3cd6-4ab4-8ee7-b23cd64c4430/tasks/1a079e6f-80e2-422b-8f12-b24b7c8ca72d" },
    "response": "created.1a079e6f-80e2-422b-8f12-b24b7c8ca72d.json"
  }
]
