[
  {
    "url" : "/api/v1/system/metadata/{platformType}/{runtimeType}/{runtimeVersion}/{formFactorType}/{version}",
    "method" : "get",
    "scenarios" : "system.scenarios.get.json"
  },
  {
    "url" : "/api/v1/termsAndConditions",
    "method" : "get",
    "scenarios" : "tnc.scenarios.get.json"
  },
  {
    "url" : "/api/v1/poi",
    "method" : "post",
    "scenarios" : "poi.scenarios.post.json"
  },
  {
    "url" : "/api/v1/poi/{poiId}/documents/emails",
    "method" : "post",
    "scenarios" : "email.scenarios.post.json"
  },
  {
    "url" : "/api/v1/poi/{poiId}/tasks/{taskId}/emailVerificationResponse",
    "method" : "post",
    "scenarios" : "emailver.scenarios.post.json"
  },
  {
    "url" : "/api/v1/credentials/x509s",
    "method" : "post",
    "scenarios" : "cred.scenarios.post.json"
  }
]