{
    "id": 7,
    "status": "Some",
    "eta": 1,
    "remainingRetryCount": 5,
    "processId": "52942edb-3cd6-4ab4-8ee7-b23cd64c4430",
    "links": [
              {
              "href": "/api/v1/poi/52942edb-3cd6-4ab4-8ee7-b23cd64c4430/tasks/7",
              "rel": "self",
              "method": "get",
              "authentication": "credential"
              },
              {
              "href": "/api/v1/poi/52942edb-3cd6-4ab4-8ee7-b23cd64c4430/tasks/7",
              "rel": "cancel",
              "method": "delete",
              "authentication": "credential"
              },
              {
              "href": "/api/v1/poi/52942edb-3cd6-4ab4-8ee7-b23cd64c4430/tasks?taskId=7",
              "rel": "clone",
              "method": "post",
              "authentication": "credential"
              },
              {
              "href": "/api/v1/poi/52942edb-3cd6-4ab4-8ee7-b23cd64c4430/bind",
              "rel": "next",
              "method": "post",
              "authentication": "user"
              }
              ]
}
